Approfondissement en R - Approfondissement en analyse de données avec R
…
# Importer un fichier CSV
mes_donnees <- read.csv("fichier.csv")

# Explorer un data frame
glimpse(mes_donnees)
names(mes_donnees)
mes_donnees$nom_colonne    # accéder à une colonne

Les données : Gapminder

gapminder

# A tibble: 1,704 × 6
   country     continent  year lifeExp      pop gdpPercap
   <fct>       <fct>     <int>   <dbl>    <int>     <dbl>
 1 Afghanistan Asia       1952    28.8  8425333      779.
 2 Afghanistan Asia       1957    30.3  9240934      821.
 3 Afghanistan Asia       1962    32.0 10267083      853.
 4 Afghanistan Asia       1967    34.0 11537966      836.
 5 Afghanistan Asia       1972    36.1 13079460      740.
 6 Afghanistan Asia       1977    38.4 14880372      786.
 7 Afghanistan Asia       1982    39.9 12881816      978.
 8 Afghanistan Asia       1987    40.8 13867957      852.
 9 Afghanistan Asia       1992    41.7 16317921      649.
10 Afghanistan Asia       1997    41.8 22227415      635.
# ℹ 1,694 more rows

filter() — garder des lignes

gapminder |>
  filter(year == 2007)

# A tibble: 142 × 6
   country     continent  year lifeExp       pop gdpPercap
   <fct>       <fct>     <int>   <dbl>     <int>     <dbl>
 1 Afghanistan Asia       2007    43.8  31889923      975.
 2 Albania     Europe     2007    76.4   3600523     5937.
 3 Algeria     Africa     2007    72.3  33333216     6223.
 4 Angola      Africa     2007    42.7  12420476     4797.
 5 Argentina   Americas   2007    75.3  40301927    12779.
 6 Australia   Oceania    2007    81.2  20434176    34435.
 7 Austria     Europe     2007    79.8   8199783    36126.
 8 Bahrain     Asia       2007    75.6    708573    29796.
 9 Bangladesh  Asia       2007    64.1 150448339     1391.
10 Belgium     Europe     2007    79.4  10392226    33693.
# ℹ 132 more rows

select() — garder des colonnes

gapminder |>
  filter(year == 2007) |>
  select(country, continent, lifeExp)

# A tibble: 142 × 3
   country     continent lifeExp
   <fct>       <fct>       <dbl>
 1 Afghanistan Asia         43.8
 2 Albania     Europe       76.4
 3 Algeria     Africa       72.3
 4 Angola      Africa       42.7
 5 Argentina   Americas     75.3
 6 Australia   Oceania      81.2
 7 Austria     Europe       79.8
 8 Bahrain     Asia         75.6
 9 Bangladesh  Asia         64.1
10 Belgium     Europe       79.4
# ℹ 132 more rows

mutate() — créer une colonne

gapminder |>
  filter(year == 2007) |>
  select(country, pop, gdpPercap) |>
  mutate(pib_milliards = round(pop * gdpPercap / 1e9, 1))

# A tibble: 142 × 4
   country           pop gdpPercap pib_milliards
   <fct>           <int>     <dbl>         <dbl>
 1 Afghanistan  31889923      975.          31.1
 2 Albania       3600523     5937.          21.4
 3 Algeria      33333216     6223.         207. 
 4 Angola       12420476     4797.          59.6
 5 Argentina    40301927    12779.         515  
 6 Australia    20434176    34435.         704. 
 7 Austria       8199783    36126.         296. 
 8 Bahrain        708573    29796.          21.1
 9 Bangladesh  150448339     1391.         209. 
10 Belgium      10392226    33693.         350. 
# ℹ 132 more rows

arrange() — trier

gapminder |>
  filter(year == 2007) |>
  select(country, lifeExp) |>
  arrange(desc(lifeExp))

# A tibble: 142 × 2
   country          lifeExp
   <fct>              <dbl>
 1 Japan               82.6
 2 Hong Kong, China    82.2
 3 Iceland             81.8
 4 Switzerland         81.7
 5 Australia           81.2
 6 Spain               80.9
 7 Sweden              80.9
 8 Israel              80.7
 9 France              80.7
10 Canada              80.7
# ℹ 132 more rows
…
